127.0.0.1 - - [04/Feb/2021:09:04:11 +0530] "GET / HTTP/1.1" 404 994
0:0:0:0:0:0:0:1 - - [04/Feb/2021:09:04:23 +0530] "GET /petpeers-application/ HTTP/1.1" 404 992
0:0:0:0:0:0:0:1 - - [04/Feb/2021:09:04:28 +0530] "GET /favicon.ico HTTP/1.1" 404 1016
127.0.0.1 - - [04/Feb/2021:09:24:26 +0530] "GET / HTTP/1.1" 404 994
0:0:0:0:0:0:0:1 - - [04/Feb/2021:09:24:34 +0530] "GET /petpeers-application/ HTTP/1.1" 404 992
127.0.0.1 - - [04/Feb/2021:09:28:12 +0530] "GET / HTTP/1.1" 404 994
0:0:0:0:0:0:0:1 - - [04/Feb/2021:09:28:18 +0530] "GET /petpeers-application/ HTTP/1.1" 404 992
0:0:0:0:0:0:0:1 - - [04/Feb/2021:09:28:32 +0530] "GET /petpeers-application/home HTTP/1.1" 404 992
0:0:0:0:0:0:0:1 - - [04/Feb/2021:09:28:48 +0530] "GET /petpeers-application/home.jsp HTTP/1.1" 404 1052
127.0.0.1 - - [04/Feb/2021:09:31:49 +0530] "GET / HTTP/1.1" 404 994
0:0:0:0:0:0:0:1 - - [04/Feb/2021:09:31:58 +0530] "GET /petpeers-application/ HTTP/1.1" 200 780
0:0:0:0:0:0:0:1 - - [04/Feb/2021:09:32:00 +0530] "GET /petpeers-application/resources/css/index_style.css HTTP/1.1" 200 1304
0:0:0:0:0:0:0:1 - - [04/Feb/2021:09:32:00 +0530] "GET /petpeers-application/resources/img/paw.png HTTP/1.1" 200 36541
0:0:0:0:0:0:0:1 - - [04/Feb/2021:09:33:06 +0530] "POST /petpeers-application/home HTTP/1.1" 200 799
0:0:0:0:0:0:0:1 - - [04/Feb/2021:09:33:45 +0530] "POST /petpeers-application/home HTTP/1.1" 200 1033
0:0:0:0:0:0:0:1 - - [04/Feb/2021:09:33:45 +0530] "GET /petpeers-application/resources/css/Home_style.css HTTP/1.1" 200 1470
0:0:0:0:0:0:0:1 - - [04/Feb/2021:09:33:45 +0530] "GET /petpeers-application/resources/css/bgPic.jpg HTTP/1.1" 200 85697
0:0:0:0:0:0:0:1 - - [04/Feb/2021:09:34:23 +0530] "POST /petpeers-application/viewallpets HTTP/1.1" 200 2847
0:0:0:0:0:0:0:1 - - [04/Feb/2021:09:34:42 +0530] "GET /petpeers-application/back? HTTP/1.1" 200 1033
0:0:0:0:0:0:0:1 - - [04/Feb/2021:09:34:48 +0530] "POST /petpeers-application/addpet HTTP/1.1" 200 3484
0:0:0:0:0:0:0:1 - - [04/Feb/2021:09:34:55 +0530] "GET /petpeers-application/back? HTTP/1.1" 200 1033
0:0:0:0:0:0:0:1 - - [04/Feb/2021:09:34:59 +0530] "POST /petpeers-application/viewMypets HTTP/1.1" 200 1989
0:0:0:0:0:0:0:1 - - [04/Feb/2021:09:35:05 +0530] "GET /petpeers-application/back? HTTP/1.1" 200 1033
0:0:0:0:0:0:0:1 - - [04/Feb/2021:09:42:21 +0530] "GET /petpeers-application/back? HTTP/1.1" 200 1033
0:0:0:0:0:0:0:1 - - [04/Feb/2021:09:44:01 +0530] "POST /petpeers-application/addpet HTTP/1.1" 200 3484
0:0:0:0:0:0:0:1 - - [04/Feb/2021:09:44:27 +0530] "POST /petpeers-application/addpet HTTP/1.1" 200 3483
0:0:0:0:0:0:0:1 - - [04/Feb/2021:09:44:38 +0530] "POST /petpeers-application/addpet HTTP/1.1" 200 3483
0:0:0:0:0:0:0:1 - - [04/Feb/2021:09:45:03 +0530] "POST /petpeers-application/addpet HTTP/1.1" 200 3484
0:0:0:0:0:0:0:1 - - [04/Feb/2021:09:46:07 +0530] "POST /petpeers-application/addpet HTTP/1.1" 200 3484
0:0:0:0:0:0:0:1 - - [04/Feb/2021:09:48:39 +0530] "POST /petpeers-application/addpet HTTP/1.1" 200 3511
0:0:0:0:0:0:0:1 - - [04/Feb/2021:09:49:19 +0530] "POST /petpeers-application/addpet HTTP/1.1" 200 3511
0:0:0:0:0:0:0:1 - - [04/Feb/2021:09:49:50 +0530] "POST /petpeers-application/addpet HTTP/1.1" 200 3511
0:0:0:0:0:0:0:1 - - [04/Feb/2021:09:50:03 +0530] "GET /petpeers-application/back? HTTP/1.1" 200 1033
0:0:0:0:0:0:0:1 - - [04/Feb/2021:09:52:13 +0530] "GET /petpeers-application/back? HTTP/1.1" 200 1033
0:0:0:0:0:0:0:1 - - [04/Feb/2021:09:52:20 +0530] "GET /petpeers-application/back? HTTP/1.1" 200 1033
0:0:0:0:0:0:0:1 - - [04/Feb/2021:09:54:41 +0530] "GET /petpeers-application/back? HTTP/1.1" 200 1060
0:0:0:0:0:0:0:1 - - [04/Feb/2021:10:03:27 +0530] "GET /petpeers-application/back? HTTP/1.1" 200 1060
0:0:0:0:0:0:0:1 - - [04/Feb/2021:10:03:31 +0530] "GET /petpeers-application/back? HTTP/1.1" 200 1060
0:0:0:0:0:0:0:1 - - [04/Feb/2021:10:03:35 +0530] "GET /petpeers-application/logout HTTP/1.1" 200 780
0:0:0:0:0:0:0:1 - - [04/Feb/2021:10:07:19 +0530] "POST /petpeers-application/home HTTP/1.1" 200 826
0:0:0:0:0:0:0:1 - - [04/Feb/2021:10:07:40 +0530] "POST /petpeers-application/home HTTP/1.1" 200 829
0:0:0:0:0:0:0:1 - - [04/Feb/2021:10:15:05 +0530] "POST /petpeers-application/home HTTP/1.1" 200 829
0:0:0:0:0:0:0:1 - - [04/Feb/2021:10:15:18 +0530] "POST /petpeers-application/home HTTP/1.1" 200 829
0:0:0:0:0:0:0:1 - - [04/Feb/2021:10:15:37 +0530] "POST /petpeers-application/home HTTP/1.1" 200 829
0:0:0:0:0:0:0:1 - - [04/Feb/2021:10:15:51 +0530] "POST /petpeers-application/home HTTP/1.1" 200 829
0:0:0:0:0:0:0:1 - - [04/Feb/2021:10:17:09 +0530] "GET /petpeers-application/view HTTP/1.1" 404 992
0:0:0:0:0:0:0:1 - - [04/Feb/2021:10:17:27 +0530] "GET /petpeers-applicatio/home HTTP/1.1" 404 1042
0:0:0:0:0:0:0:1 - - [04/Feb/2021:10:17:52 +0530] "GET /petpeers-applicatio/Home HTTP/1.1" 404 1042
0:0:0:0:0:0:0:1 - - [04/Feb/2021:10:28:27 +0530] "GET /petpeers-application/ HTTP/1.1" 200 807
0:0:0:0:0:0:0:1 - - [04/Feb/2021:10:28:47 +0530] "POST /petpeers-application/home HTTP/1.1" 200 1060
0:0:0:0:0:0:0:1 - - [04/Feb/2021:10:28:58 +0530] "POST /petpeers-application/viewallpets HTTP/1.1" 200 2874
0:0:0:0:0:0:0:1 - - [04/Feb/2021:10:29:03 +0530] "GET /petpeers-application/back? HTTP/1.1" 200 1060
0:0:0:0:0:0:0:1 - - [04/Feb/2021:10:29:10 +0530] "POST /petpeers-application/viewMypets HTTP/1.1" 200 2016
0:0:0:0:0:0:0:1 - - [04/Feb/2021:10:29:17 +0530] "POST /petpeers-application/addpet HTTP/1.1" 200 3511
0:0:0:0:0:0:0:1 - - [04/Feb/2021:10:36:35 +0530] "GET /petpeers-application/ HTTP/1.1" 200 807
0:0:0:0:0:0:0:1 - - [04/Feb/2021:10:36:51 +0530] "POST /petpeers-application/home HTTP/1.1" 200 829
0:0:0:0:0:0:0:1 - - [04/Feb/2021:10:37:05 +0530] "POST /petpeers-application/home HTTP/1.1" 200 1060
0:0:0:0:0:0:0:1 - - [04/Feb/2021:10:38:34 +0530] "POST /petpeers-application/home HTTP/1.1" 200 1060
0:0:0:0:0:0:0:1 - - [04/Feb/2021:10:39:34 +0530] "POST /petpeers-application/viewallpets HTTP/1.1" 200 2874
0:0:0:0:0:0:0:1 - - [04/Feb/2021:10:40:25 +0530] "POST /petpeers-application/home HTTP/1.1" 200 1060
0:0:0:0:0:0:0:1 - - [04/Feb/2021:10:40:49 +0530] "POST /petpeers-application/home HTTP/1.1" 200 1060
0:0:0:0:0:0:0:1 - - [04/Feb/2021:10:42:06 +0530] "GET /petpeers-application/home HTTP/1.1" 400 1105
0:0:0:0:0:0:0:1 - - [04/Feb/2021:10:42:22 +0530] "POST /petpeers-application/home HTTP/1.1" 200 1060
